…
There are 134 aisles, and by far the aisles with the most orders are
fresh veggies and fresh fruits, with over 150,000 items ordered in each.
This is followed by the packaged veggies/fruits aisle, from which about
78,000 items have been ordered. The next most popular aisles include
dairy products like yogurt, packaged cheese, and milk.

# Making a plot

``` r
count(instacart, aisle, name = "aisle_count") %>%
  arrange(desc(aisle_count))
## # A tibble: 134 x 2
##    aisle                         aisle_count
##    <chr>                               <int>
##  1 fresh vegetables                   150609
##  2 fresh fruits                       150473
##  3 packaged vegetables fruits          78493
##  4 yogurt                              55240
##  5 packaged cheese                     41699
##  6 water seltzer sparkling water       36617
##  7 milk                                32644
##  8 chips pretzels                      31269
##  9 soy lactosefree                     26240
## 10 bread                               23635
## # … with 124 more rows
…
    activity_1:activity_1440,
    names_to = "activity_number",
    values_to = "activity") %>%
  separate(activity_number, into = c("activity_name", "minute")) %>%
  mutate(
    day_type = if_else(day %in% c("Monday", "Tuesday", "Wednesday", "Thursday", "Friday"), "day", day),
    day_type = if_else(day_type %in% c("Saturday", "Sunday"), "weekend", day_type),
    minute = as.numeric(minute)) %>%
  select(-activity_name) %>%
  rename(
    day_number = day_id,
    day_name = day
  )
accel
## # A tibble: 50,400 x 6
##     week day_number day_name minute activity day_type
##    <dbl>      <dbl> <chr>     <dbl>    <dbl> <chr>   
##  1     1          1 Friday        1     88.4 day     
##  2     1          1 Friday        2     82.2 day     
##  3     1          1 Friday        3     64.4 day     
##  4     1          1 Friday        4     70.0 day     
##  5     1          1 Friday        5     75.0 day     
##  6     1          1 Friday        6     66.3 day     
##  7     1          1 Friday        7     53.8 day     
##  8     1          1 Friday        8     47.8 day     
##  9     1          1 Friday        9     55.5 day     
## 10     1          1 Friday       10     43.0 day     
## # … with 50,390 more rows
```
…
Total Activity Per Day

``` r
accel_sum
## # A tibble: 35 x 2
##    day_number sum_of_day
##         <dbl>      <dbl>
##  1          1    480543.
##  2          2     78828.
##  3          3    376254 
##  4          4    631105 
##  5          5    355924.
##  6          6    307094.
##  7          7    340115.
##  8          8    568839 
##  9          9    295431 
## 10         10    607175 
## # … with 25 more rows
```
…
